Cluster Plots
…
idx_row <- seq(8)
idx_col <- seq(9)
tbl <- df_clusters$table[[1]]
tbl[idx_row, idx_col] %>% {
  tibble(x=rep(cumsum(colSums(.)) - 0.5*sum(.[,1]), each=nrow(.)),
         y=rep(cumsum(rowSums(.)) - 0.5*sum(.[1,]), times=ncol(.)),
         height=rep(rowSums(.), times=ncol(.)),
         width=rep(colSums(.), each=nrow(.)),
         values=as.vector(./rowSums(.)))
}

## # A tibble: 72 x 5
##        x     y height width values
##    <dbl> <dbl>  <dbl> <dbl>  <dbl>
##  1    32    13     26    64 0     
##  2    32    78     65    64 0.923 
##  3    32   166     88    64 0.0114
##  4    32   216     50    64 0     
##  5    32   316    100    64 0.01  
##  6    32   356     40    64 0     
##  7    32   420     64    64 0.0156
##  8    32   516     96    64 0.0104
##  9    51    13     26    19 0     
## 10    51    78     65    19 0     
## #  with 62 more rows
…
